<svg xmlns="http://www.w3.org/2000/svg" width="308" height="287" viewBox="0 0 308 287">
  <g id="Group_1" data-name="Group 1" transform="translate(-26.25 -224)">
    <path id="Oval" d="M157.7,287C224.1,287,308,248.923,308,164.592S261.184-24.068,190.221,4.957,0,79,0,163.33,91.288,287,157.7,287Z" transform="translate(26.25 224)" fill="#fff8ea"/>
    <g id="yukmarket-logo1" transform="translate(99 306)">
      <g id="yukmarket-logo3" transform="translate(0.322 8.492)">
        <g id="Group" transform="translate(0 101.977)">
          <path id="Path" d="M18.171,0,6.786,27.166H3.263l4.227-9.5L0,0H3.708L9.122,13.545H9.2L14.463,0h3.708Z" transform="translate(0 8.696)" fill="#00a00c"/>
          <path id="Path-2" data-name="Path" d="M16.093,18.855H12.83V16.238h-.148a6.163,6.163,0,0,1-2.392,2.308,6.66,6.66,0,0,1-3.356.924A6.58,6.58,0,0,1,1.8,17.489,8.1,8.1,0,0,1,0,11.852V0H3.412V11.621q.112,4.617,4.487,4.618a4.209,4.209,0,0,0,3.412-1.713,6.35,6.35,0,0,0,1.372-4.1V0h3.412V18.855Z" transform="translate(20.247 8.696)" fill="#00a00c"/>
          <path id="Path-3" data-name="Path" d="M15.983,27.551H11.867L6.193,18.663,3.412,21.51v6.041H0V0H3.412V16.97L11.273,8.7h4.376V8.85L8.566,16.161,15.983,27.4Z" transform="translate(40.494 0)" fill="#00a00c"/>
          <path id="Path-4" data-name="Path" d="M3.412,19.47H0V.616H3.263V3.232h.148A6.159,6.159,0,0,1,5.8.924a6.471,6.471,0,0,1,6.731.038,5.622,5.622,0,0,1,2.225,2.655A7.037,7.037,0,0,1,21.026,0a6.034,6.034,0,0,1,4.858,2A8.531,8.531,0,0,1,27.59,7.7V19.471H24.178V8.235a6.228,6.228,0,0,0-.927-3.829,3.742,3.742,0,0,0-3.115-1.173,4.028,4.028,0,0,0-3.3,1.732A6.486,6.486,0,0,0,15.5,9.043V19.471H12.089V8.235a6.228,6.228,0,0,0-.927-3.829A3.742,3.742,0,0,0,8.047,3.233a4.028,4.028,0,0,0-3.3,1.732A6.486,6.486,0,0,0,3.412,9.043Z" transform="translate(58.404 8.081)" fill="#ff8900"/>
          <path id="Shape" d="M2.021,18.239A5.993,5.993,0,0,1,0,13.622,5.686,5.686,0,0,1,2.132,8.966,8.76,8.76,0,0,1,7.825,7.234a9.776,9.776,0,0,1,5.006,1.155V7.58a4.094,4.094,0,0,0-1.409-3.136,4.734,4.734,0,0,0-3.3-1.289A5.181,5.181,0,0,0,3.6,5.656l-3-1.962A8.273,8.273,0,0,1,7.936,0a8.271,8.271,0,0,1,5.97,2.1A7.594,7.594,0,0,1,16.094,7.85V19.471H12.831V16.854h-.148a6.457,6.457,0,0,1-5.637,3.232A7.167,7.167,0,0,1,2.021,18.239Z" transform="translate(88.776 8.081)" fill="#ff8900"/>
          <path id="Path-5" data-name="Path" d="M3.412,19.394H0V.539H3.263V3.617h.148A5.065,5.065,0,0,1,5.543,1.058,5.77,5.77,0,0,1,8.714,0a6.185,6.185,0,0,1,2.522.462L10.2,3.886a5.478,5.478,0,0,0-2-.269A4.35,4.35,0,0,0,4.838,5.233,5.517,5.517,0,0,0,3.411,9V19.394Z" transform="translate(108.726 8.158)" fill="#ff8900"/>
          <path id="Path-6" data-name="Path" d="M15.983,27.551H11.867L6.193,18.663,3.412,21.51v6.041H0V0H3.412V16.97L11.273,8.7h4.376V8.85L8.566,16.161,15.983,27.4v.154Z" transform="translate(122.372 0)" fill="#ff8900"/>
          <path id="Shape-2" data-name="Shape" d="M2.6,17.239a10.272,10.272,0,0,1-2.6-7.2A10.47,10.47,0,0,1,2.522,2.867,8.21,8.21,0,0,1,8.974,0a8.149,8.149,0,0,1,6.434,2.713q2.391,2.713,2.392,7.6l-.037.385H3.486a6.259,6.259,0,0,0,1.78,4.463,5.586,5.586,0,0,0,4.08,1.693q3.262,0,5.117-3.386l3.04,1.54a9.259,9.259,0,0,1-3.393,3.732A9.116,9.116,0,0,1,9.2,20.086,8.537,8.537,0,0,1,2.6,17.239Z" transform="translate(138.688 8.08)" fill="#ff8900"/>
          <path id="Path-7" data-name="Path" d="M8.381,24.935a5.08,5.08,0,0,1-3.69-1.424,5.384,5.384,0,0,1-1.5-3.964V9H0V5.772H3.189V0H6.6V5.772h4.45V9H6.6v9.389a3.528,3.528,0,0,0,.7,2.559,2.246,2.246,0,0,0,1.594.674,3.322,3.322,0,0,0,.8-.1,4.01,4.01,0,0,0,.723-.25L11.5,24.435A8.881,8.881,0,0,1,8.381,24.935Z" transform="translate(157.86 2.925)" fill="#ff8900"/>
        </g>
        <path id="Combined_Shape" data-name="Combined Shape" d="M40.324,96.235h-.007a44.927,44.927,0,0,1-8.891-.894,56.732,56.732,0,0,1-11.144-3.394,29.356,29.356,0,0,1-7.828-4.712A37.175,37.175,0,0,1,6.026,79.88a35.215,35.215,0,0,1-3.984-8.2,43.6,43.6,0,0,1-1.823-17.9A69.08,69.08,0,0,1,4.328,36.323a93.791,93.791,0,0,1,7.717-15.975,87.4,87.4,0,0,1,9.234-12.7A39.08,39.08,0,0,1,29.939,0c.02.186.039.391.059.608l0,.025v0c.388,4.2,1.3,14.047,18.826,28.05,1.581,1.263,3.208,2.53,4.932,3.873l.006,0,.025.019c3.447,2.684,7.012,5.46,10.371,8.328l-.154.186A62.847,62.847,0,0,0,55.169,55.11a41.7,41.7,0,0,0-3.835,14.467c-.793-.485-1.573-.994-2.319-1.512a46.127,46.127,0,0,1-9.283-8.555,53.429,53.429,0,0,1-10.026-19.8,69.8,69.8,0,0,1-1.92-9.41,75.745,75.745,0,0,1-.643-7.858,57.551,57.551,0,0,1,.192-7.388c-7.686,22.332-.3,40.558,7.253,51.916A82.361,82.361,0,0,0,46.9,81.385,63.3,63.3,0,0,0,53,86.463l0,.032c-.107.695-.673,4.362-1.36,8.327A46.868,46.868,0,0,1,40.324,96.235Z" transform="translate(18.62 0)" fill="#00a00c"/>
      </g>
      <path id="Combined_Shape-2" data-name="Combined Shape" d="M30.751,104.089h0a57.621,57.621,0,0,1-11.719-1.124l-.042-.343c-.233-1.907-.473-3.879-.582-6.123,26.6-14.842,38.841-34.517,44.422-48.409a83.62,83.62,0,0,0,5.192-19.14,51.477,51.477,0,0,0,.6-7.72,84.768,84.768,0,0,1-5.7,16.95,79.481,79.481,0,0,1-8.078,13.707,83.624,83.624,0,0,1-19.425,18.9,91.913,91.913,0,0,1-9.412,5.8c-2.6,1.395-5.268,2.661-7.921,3.764a61.662,61.662,0,0,1-7.5,2.648A52.808,52.808,0,0,1,0,78.069,41.693,41.693,0,0,1,3.835,63.6a62.84,62.84,0,0,1,8.838-14.013,69.972,69.972,0,0,1,12.5-11.86,57.729,57.729,0,0,1,14.813-8.008C60.523,22.422,66.431,8,68.954,1.837c.317-.775.568-1.386.788-1.837a34.23,34.23,0,0,1,6.752,7.982,56.878,56.878,0,0,1,5.271,10.962,76.029,76.029,0,0,1,3.414,13.045,82.579,82.579,0,0,1,1.182,14.234A76.989,76.989,0,0,1,85.21,59.289a66.134,66.134,0,0,1-3.53,12.653,52.157,52.157,0,0,1-15.285,21.47A36.988,36.988,0,0,1,59,98.077a54.659,54.659,0,0,1-8.852,3.338A71.6,71.6,0,0,1,30.751,104.089Z" transform="translate(70.277 0)" fill="#ff8900"/>
    </g>
  </g>
</svg>
