<?xml version="1.0" encoding="UTF-8"?>
<svg width="17px" height="17px" viewBox="0 0 17 17" version="1.1" xmlns="http://www.w3.org/2000/svg" xmlns:xlink="http://www.w3.org/1999/xlink">
    <!-- Generator: Sketch 57.1 (83088) - https://sketch.com -->
    <title>ic_key_gray copy 4</title>
    <desc>Created with Sketch.</desc>
    <g id="ic_key_gray-copy-4" stroke="none" stroke-width="1" fill="none" fill-rule="evenodd">
        <g id="megaphone-(1)" transform="translate(0.000000, 0.000000)"></g>
        <path d="M13.8636417,9.398875 C11.2597375,9.50041458 8.79445417,10.1775104 6.5979125,11.2996875 L3.77343333,12.930625 C3.02646042,13.3613271 2.0725125,13.1028208 1.64382917,12.3597083 L0.208391667,9.87416667 C-0.2212125,9.12970833 0.03485,8.17416667 0.779308333,7.7445625 L3.11939375,6.39331042 C3.25489792,6.315075 3.42819167,6.36147083 3.5064625,6.49701042 L5.345225,9.68185417 C5.42484167,9.81973125 5.60284583,9.86548958 5.73948333,9.78126875 C5.87162292,9.69981042 5.9077125,9.52279792 5.83007917,9.38835625 L3.97803542,6.18049167 C3.904475,6.0530625 3.9406,5.89039375 4.06154792,5.8065625 C5.99342083,4.467175 7.62782917,2.76126042 8.88299583,0.771729167 C9.3585,0.0173895833 10.4665104,0.0375770833 10.9134333,0.811395833 L14.8443292,7.62060417 C15.291075,8.39275833 14.7562125,9.36416667 13.8636417,9.398875 Z M14.3680458,4.6565125 C14.5135729,3.82358333 14.0253896,2.988175 13.2363417,2.70222083 C12.9883188,2.61233333 12.7633167,2.88224375 12.8951729,3.11071667 C13.2091063,3.65461042 13.5241729,4.20038125 13.8427458,4.75196042 C13.9758417,4.98234583 14.3222521,4.91863125 14.3680458,4.6565125 Z M7.82757917,14.6819792 L6.48302083,12.3479146 C6.40489167,12.2122687 6.23138542,12.1657667 6.095775,12.2440021 C5.36707708,12.6644333 5.33952292,12.6807604 4.3675125,13.2418312 C4.23197292,13.3200667 4.18536458,13.4934667 4.26363542,13.6290062 L5.61049583,15.9615833 C5.78315208,16.2602875 6.09365,16.4227083 6.40985,16.4227083 C6.71655833,16.4227083 6.83385833,16.3189375 7.4904125,15.9399792 C7.9302875,15.6860417 8.08151667,15.1215 7.82757917,14.6819792 L7.82757917,14.6819792 Z M16.4368042,2.5021875 C16.5723083,2.42395208 16.618775,2.25065833 16.5405042,2.11515417 C16.4623042,1.97968542 16.2890813,1.93318333 16.1534708,2.01145417 L15.4203813,2.43471875 C15.1694896,2.57957292 15.2744292,2.96348958 15.5623313,2.96348958 C15.6630917,2.96345417 15.6429042,2.96055 16.4368042,2.5021875 L16.4368042,2.5021875 Z M13.8314833,1.03398958 L14.0102667,0.36688125 C14.0507833,0.215722917 13.9610729,0.0603854167 13.80995,0.01986875 C13.6586854,-0.0205770833 13.5034188,0.0690625 13.4629021,0.220220833 L13.2841188,0.887329167 C13.2359875,1.0669625 13.37135,1.24408125 13.5579604,1.24408125 C13.6830521,1.24404583 13.7975542,1.16056875 13.8314833,1.03398958 L13.8314833,1.03398958 Z M16.9898,5.52755 C17.0303167,5.37639167 16.9405708,5.22101875 16.7894479,5.1805375 L16.1223042,5.00178958 C15.9711813,4.96137917 15.8158083,5.05101875 15.7752917,5.20214167 C15.734775,5.35326458 15.8245208,5.5086375 15.9756438,5.54915417 C16.7052625,5.74465417 16.6652063,5.73764167 16.7162771,5.73764167 C16.8413688,5.73764167 16.9558708,5.65412917 16.9898,5.52755 L16.9898,5.52755 Z" id="Shape" fill="#B4B4B4" fill-rule="nonzero"></path>
    </g>
</svg>